<?xml version="1.0" encoding="utf-8"?>
<!-- Generator: Adobe Illustrator 17.1.0, SVG Export Plug-In . SVG Version: 6.00 Build 0)  -->
<!DOCTYPE svg PUBLIC "-//W3C//DTD SVG 1.1//EN" "http://www.w3.org/Graphics/SVG/1.1/DTD/svg11.dtd">
<svg version="1.1" id="Слой_1" xmlns="http://www.w3.org/2000/svg" xmlns:xlink="http://www.w3.org/1999/xlink" x="0px" y="0px"
	 viewBox="0 0 150 150" style="enable-background:new 0 0 150 150;" xml:space="preserve">
<style type="text/css">
	.st0{clip-path:url(#SVGID_2_);fill:#008D36;}
	.st1{fill:#008D36;}
	.st2{clip-path:url(#SVGID_4_);fill:#888888;}
	.st3{clip-path:url(#SVGID_6_);fill:#888888;}
	.st4{fill:#888888;}
	.st5{clip-path:url(#SVGID_8_);fill:#888888;}
	.st6{fill:none;stroke:#888888;stroke-width:5.805;stroke-miterlimit:10;}
	.st7{clip-path:url(#SVGID_10_);fill:#888888;}
	.st8{clip-path:url(#SVGID_12_);fill:#888888;}
	.st9{fill-rule:evenodd;clip-rule:evenodd;fill:#1D4C6B;}
	.st10{fill-rule:evenodd;clip-rule:evenodd;fill:#FFFFFF;}
	
		.st11{fill:none;stroke:#008D36;stroke-width:3;stroke-linecap:round;stroke-linejoin:round;stroke-dasharray:1.9993,5.9978,0,0,0,0;}
	
		.st12{fill:none;stroke:#1F4D6B;stroke-width:3;stroke-linecap:round;stroke-linejoin:round;stroke-dasharray:1.9993,5.9978,0,0,0,0;}
	.st13{clip-path:url(#SVGID_14_);fill:#FFFFFF;}
	
		.st14{fill:none;stroke:#FFFFFF;stroke-width:3;stroke-linecap:round;stroke-linejoin:round;stroke-dasharray:1.9993,5.9978,0,0,0,0;}
	.st15{clip-path:url(#SVGID_16_);fill:#FFFFFF;}
	.st16{fill:#FFFFFF;}
	.st17{fill:#1F4D6B;}
	.st18{fill:none;stroke:#1F4D6B;stroke-width:6.7835;stroke-linecap:round;stroke-linejoin:round;stroke-miterlimit:10;}
	.st19{fill:none;stroke:#1F4D6B;stroke-width:6.6338;stroke-linecap:square;stroke-linejoin:bevel;stroke-miterlimit:10;}
	.st20{fill:none;stroke:#1F4D6B;stroke-width:7.146;stroke-linecap:square;stroke-linejoin:bevel;stroke-miterlimit:10;}
	
		.st21{fill:none;stroke:#888888;stroke-width:3;stroke-linecap:round;stroke-linejoin:round;stroke-dasharray:1.9993,5.9978,0,0,0,0;}
	.st22{clip-path:url(#SVGID_18_);fill:#888888;}
	.st23{fill-rule:evenodd;clip-rule:evenodd;fill:#1F4D6B;}
	.st24{clip-path:url(#SVGID_20_);fill:#888888;}
	.st25{clip-path:url(#SVGID_22_);fill:#008D36;}
	.st26{fill:none;stroke:#008D36;stroke-width:6;stroke-miterlimit:10;}
	.st27{fill:#E9E9E0;}
	.st28{fill:#D9D7CA;}
	.st29{fill:#CC4B4C;}
</style>
<g>
	<path class="st4" d="M75.2,125.6c1.1,0,2.2-0.3,3.2-0.8l39.8-22.1c2.1-1.2,3.4-3.4,3.4-5.8V53.1c0-2.4-1.3-4.7-3.4-5.8L78.5,25.2
		c-2-1.1-4.4-1.1-6.5,0c0,0,0,0,0,0L32.2,47.2c-2.1,1.2-3.4,3.4-3.4,5.8v43.8c0,2.4,1.3,4.7,3.4,5.8L72,124.8
		C73,125.4,74.1,125.6,75.2,125.6z M113.9,51.1L75.3,72.5L59,63.2l38.4-21.3L113.9,51.1z M115.6,98L78,118.8V77.2L116.2,56v40.9
		C116.3,97.4,116,97.8,115.6,98z M74.7,30L74.7,30c0.4-0.2,0.8-0.2,1.2,0l15.9,8.8L53.4,60l-16.3-9.2L74.7,30z M34.2,96.9V55.4
		L52,65.5c0,0,0,0,0,0l20.5,11.7v41.7L34.9,98C34.5,97.8,34.2,97.4,34.2,96.9z"/>
	<path class="st4" d="M57.5,88.5V77c0-1-0.5-1.9-1.4-2.4l-14.5-8c-0.8-0.5-1.9-0.5-2.7,0C38,67.1,37.5,68,37.5,69v11.6
		c0,1,0.5,1.9,1.4,2.4l14.5,8c0.4,0.2,0.9,0.3,1.3,0.3c0.5,0,1-0.1,1.4-0.4C57,90.4,57.5,89.5,57.5,88.5z M52,83.9l-9-5v-5.3l9,5
		V83.9z"/>
	<path class="st4" d="M67.5,103.5l-7.2-4c-1.3-0.7-3-0.2-3.7,1.1c-0.7,1.3-0.2,3,1.1,3.7l7.2,4c0.4,0.2,0.9,0.3,1.3,0.3
		c1,0,1.9-0.5,2.4-1.4C69.3,105.9,68.8,104.2,67.5,103.5z"/>
	<path class="st4" d="M132.5,34.7l5-5c0.8-0.8,1-2,0.6-3c-0.4-1-1.4-1.7-2.5-1.7H122c-1.5,0-2.7,1.2-2.7,2.7v13.6
		c0,1.1,0.7,2.1,1.7,2.5c0.3,0.1,0.7,0.2,1,0.2c0.7,0,1.4-0.3,1.9-0.8l4.6-4.6c17.3,25.3,14.2,60.1-7.7,82
		c-18.8,18.8-46.8,24.2-71.2,13.6c-1.4-0.6-3,0-3.6,1.4c-0.6,1.4,0,3,1.4,3.6c8.8,3.8,18.2,5.7,27.7,5.7c4.2,0,8.5-0.4,12.7-1.1
		c14-2.6,26.8-9.2,36.9-19.4c12-12,19.2-27.8,20.3-44.7C146.2,63.7,141.7,47.8,132.5,34.7z M124.7,30.4h4.2l-4.2,4.2V30.4z"/>
	<path class="st4" d="M41.8,130.2l-0.1-0.1c-1.3-0.8-3-0.4-3.8,0.9c-0.8,1.3-0.4,3,0.9,3.8l0.1,0.1c0.4,0.3,0.9,0.4,1.4,0.4
		c0.9,0,1.8-0.5,2.3-1.3C43.5,132.6,43.1,131,41.8,130.2z"/>
	<path class="st4" d="M109,20l0.1,0.1c0.4,0.3,0.9,0.4,1.4,0.4c0.9,0,1.8-0.5,2.3-1.3c0.8-1.3,0.4-3-0.9-3.8l-0.1-0.1
		c-1.3-0.8-3-0.4-3.8,0.9C107.3,17.5,107.7,19.2,109,20z"/>
	<path class="st4" d="M29.5,106.2c-1-0.4-2.2-0.2-3,0.6l-4.6,4.6c-17.3-25.3-14.2-60.1,7.7-82c18.8-18.8,46.7-24.1,71.1-13.7
		c1.4,0.6,3,0,3.6-1.4c0.6-1.4,0-3-1.4-3.6c-12.7-5.5-26.7-7-40.3-4.5c-14,2.6-26.7,9.3-36.8,19.3c-12,12-19.2,27.8-20.3,44.7
		c-1.1,16.1,3.4,32,12.6,45.1l-5,5c-0.8,0.8-1,2-0.6,3c0.4,1,1.4,1.7,2.5,1.7h13.6c1.5,0,2.7-1.2,2.7-2.7v-13.6
		C31.2,107.6,30.6,106.6,29.5,106.2z M25.8,119.6h-4.2l4.2-4.2L25.8,119.6L25.8,119.6z"/>
</g>
</svg>
