<?xml version="1.0" encoding="utf-8"?>
<!-- Generator: Adobe Illustrator 17.1.0, SVG Export Plug-In . SVG Version: 6.00 Build 0)  -->
<!DOCTYPE svg PUBLIC "-//W3C//DTD SVG 1.1//EN" "http://www.w3.org/Graphics/SVG/1.1/DTD/svg11.dtd">
<svg version="1.1" id="Слой_1" xmlns="http://www.w3.org/2000/svg" xmlns:xlink="http://www.w3.org/1999/xlink" x="0px" y="0px"
	 viewBox="0 0 150 150" style="enable-background:new 0 0 150 150;" xml:space="preserve">
<style type="text/css">
	.st0{clip-path:url(#SVGID_2_);fill:#008D36;}
	.st1{fill:#008D36;}
	.st2{clip-path:url(#SVGID_4_);fill:#888888;}
	.st3{clip-path:url(#SVGID_6_);fill:#888888;}
	.st4{fill:#888888;}
	.st5{clip-path:url(#SVGID_8_);fill:#888888;}
	.st6{fill:none;stroke:#888888;stroke-width:5.805;stroke-miterlimit:10;}
	.st7{clip-path:url(#SVGID_10_);fill:#888888;}
	.st8{clip-path:url(#SVGID_12_);fill:#888888;}
	.st9{fill-rule:evenodd;clip-rule:evenodd;fill:#1D4C6B;}
	.st10{fill-rule:evenodd;clip-rule:evenodd;fill:#FFFFFF;}
	
		.st11{fill:none;stroke:#008D36;stroke-width:3;stroke-linecap:round;stroke-linejoin:round;stroke-dasharray:1.9993,5.9978,0,0,0,0;}
	
		.st12{fill:none;stroke:#1F4D6B;stroke-width:3;stroke-linecap:round;stroke-linejoin:round;stroke-dasharray:1.9993,5.9978,0,0,0,0;}
	.st13{clip-path:url(#SVGID_14_);fill:#FFFFFF;}
	
		.st14{fill:none;stroke:#FFFFFF;stroke-width:3;stroke-linecap:round;stroke-linejoin:round;stroke-dasharray:1.9993,5.9978,0,0,0,0;}
	.st15{clip-path:url(#SVGID_16_);fill:#FFFFFF;}
	.st16{fill:#FFFFFF;}
	.st17{fill:#1F4D6B;}
	.st18{fill:none;stroke:#1F4D6B;stroke-width:6.7835;stroke-linecap:round;stroke-linejoin:round;stroke-miterlimit:10;}
	.st19{fill:none;stroke:#1F4D6B;stroke-width:6.6338;stroke-linecap:square;stroke-linejoin:bevel;stroke-miterlimit:10;}
	.st20{fill:none;stroke:#1F4D6B;stroke-width:7.146;stroke-linecap:square;stroke-linejoin:bevel;stroke-miterlimit:10;}
	
		.st21{fill:none;stroke:#888888;stroke-width:3;stroke-linecap:round;stroke-linejoin:round;stroke-dasharray:1.9993,5.9978,0,0,0,0;}
	.st22{clip-path:url(#SVGID_18_);fill:#888888;}
	.st23{fill-rule:evenodd;clip-rule:evenodd;fill:#1F4D6B;}
	.st24{clip-path:url(#SVGID_20_);fill:#888888;}
	.st25{clip-path:url(#SVGID_22_);fill:#008D36;}
	.st26{fill:none;stroke:#008D36;stroke-width:6;stroke-miterlimit:10;}
	.st27{fill:#E9E9E0;}
	.st28{fill:#D9D7CA;}
	.st29{fill:#CC4B4C;}
</style>
<path class="st4" d="M134.1,45.3c-1.5-1.3-7.3-1.2-13-1.2c-5.8,0-11.6,0.1-13,0.6c-1.2,0.5-4,7.2-7.7,14.1
	c-4.1,7.8-9.2,15.4-12.4,15.3C84,74.1,85,61.2,85.2,51.7c0.2-6.3-0.9-8.2-1.8-8.8c-2.2-1.5-8.2-2.9-8.2-2.9s-18-1.4-20.6,6.5
	c3.4,0.5,9.4-0.6,7.1,23.6c-0.1,1.2-2.8,11.2-11.2-2.4c-2.1-3.3-10.2-23.5-13-23.6c-9.4-0.3-18.5-0.6-21.8,1.2
	c-3,1.7,4,15.6,15.9,34.2c9.7,15.2,20,27.1,37.7,30.1c3.3,0.3,12,0.7,14.7-0.6c1.9-0.9-0.4-14.1,5.9-15.3
	c2.8-0.6,13.6,13.7,17.7,15.3c2.5,1,8,1.4,13.5,1.2c6.1-0.2,12.9,0.5,13.6-3.5c1.5-9.1-18.3-20.9-18.9-26.5
	c-0.4-4,7.2-11.4,11.2-17.1C131.9,56.1,137.1,47.8,134.1,45.3z"/>
</svg>
