<?xml version="1.0" encoding="utf-8"?>
<!-- Generator: Adobe Illustrator 17.1.0, SVG Export Plug-In . SVG Version: 6.00 Build 0)  -->
<!DOCTYPE svg PUBLIC "-//W3C//DTD SVG 1.1//EN" "http://www.w3.org/Graphics/SVG/1.1/DTD/svg11.dtd">
<svg version="1.1" id="Слой_1" xmlns="http://www.w3.org/2000/svg" xmlns:xlink="http://www.w3.org/1999/xlink" x="0px" y="0px"
	 viewBox="0 0 150 150" style="enable-background:new 0 0 150 150;" xml:space="preserve">
<style type="text/css">
	.st0{clip-path:url(#SVGID_2_);fill:#008D36;}
	.st1{fill:#008D36;}
	.st2{clip-path:url(#SVGID_4_);fill:#888888;}
	.st3{clip-path:url(#SVGID_6_);fill:#888888;}
	.st4{fill:#888888;}
	.st5{clip-path:url(#SVGID_8_);fill:#888888;}
	.st6{fill:none;stroke:#888888;stroke-width:5.805;stroke-miterlimit:10;}
	.st7{clip-path:url(#SVGID_10_);fill:#888888;}
	.st8{clip-path:url(#SVGID_12_);fill:#888888;}
	.st9{fill-rule:evenodd;clip-rule:evenodd;fill:#1D4C6B;}
	.st10{fill-rule:evenodd;clip-rule:evenodd;fill:#FFFFFF;}
	
		.st11{fill:none;stroke:#008D36;stroke-width:3;stroke-linecap:round;stroke-linejoin:round;stroke-dasharray:1.9993,5.9978,0,0,0,0;}
	
		.st12{fill:none;stroke:#1F4D6B;stroke-width:3;stroke-linecap:round;stroke-linejoin:round;stroke-dasharray:1.9993,5.9978,0,0,0,0;}
	.st13{clip-path:url(#SVGID_14_);fill:#FFFFFF;}
	
		.st14{fill:none;stroke:#FFFFFF;stroke-width:3;stroke-linecap:round;stroke-linejoin:round;stroke-dasharray:1.9993,5.9978,0,0,0,0;}
	.st15{clip-path:url(#SVGID_16_);fill:#FFFFFF;}
	.st16{fill:#FFFFFF;}
	.st17{fill:#1F4D6B;}
	.st18{fill:none;stroke:#1F4D6B;stroke-width:6.7835;stroke-linecap:round;stroke-linejoin:round;stroke-miterlimit:10;}
	.st19{fill:none;stroke:#1F4D6B;stroke-width:6.6338;stroke-linecap:square;stroke-linejoin:bevel;stroke-miterlimit:10;}
	.st20{fill:none;stroke:#1F4D6B;stroke-width:7.146;stroke-linecap:square;stroke-linejoin:bevel;stroke-miterlimit:10;}
	
		.st21{fill:none;stroke:#888888;stroke-width:3;stroke-linecap:round;stroke-linejoin:round;stroke-dasharray:1.9993,5.9978,0,0,0,0;}
	.st22{clip-path:url(#SVGID_18_);fill:#888888;}
	.st23{fill-rule:evenodd;clip-rule:evenodd;fill:#1F4D6B;}
	.st24{clip-path:url(#SVGID_20_);fill:#888888;}
	.st25{clip-path:url(#SVGID_22_);fill:#008D36;}
	.st26{fill:none;stroke:#008D36;stroke-width:6;stroke-miterlimit:10;}
	.st27{fill:#E9E9E0;}
	.st28{fill:#D9D7CA;}
	.st29{fill:#CC4B4C;}
</style>
<g>
	<path class="st23" d="M133,17H17v116h116V17L133,17z M145,145H5V5h140V145z"/>
	<rect x="105.2" y="22.2" class="st23" width="21.6" height="105.7"/>
	<path class="st23" d="M42.8,46.8c-2.6,0-4.9,1.1-6.6,2.7l0,0c-1.7,1.7-2.7,4-2.7,6.6v25.1c-1,1-1.8,2.2-2.4,3.4
		c-0.8,1.7-1.2,3.6-1.2,5.5c0,3.6,1.4,6.8,3.8,9.2c2.3,2.3,5.6,3.8,9.2,3.8c3.6,0,6.8-1.5,9.2-3.8c2.3-2.4,3.8-5.6,3.8-9.2
		c0-2-0.4-3.8-1.2-5.5c-0.6-1.3-1.4-2.4-2.4-3.4V56.1c0-2.6-1.1-4.9-2.7-6.6l0,0C47.7,47.8,45.4,46.8,42.8,46.8L42.8,46.8z
		 M29.2,80.2H24c-1.7,0-3-1.4-3-3c0-1.7,1.4-3,3-3h5.2c1.7,0,3,1.4,3,3C32.3,78.9,30.9,80.2,29.2,80.2L29.2,80.2z M29.2,70.5H24
		c-1.7,0-3-1.4-3-3c0-1.7,1.4-3,3-3h5.2c1.7,0,3,1.4,3,3C32.3,69.1,30.9,70.5,29.2,70.5L29.2,70.5z M29.2,60.8H24c-1.7,0-3-1.4-3-3
		c0-1.7,1.4-3,3-3h5.2c1.7,0,3,1.4,3,3C32.3,59.4,30.9,60.8,29.2,60.8L29.2,60.8z M46.1,65.1h-6.5v-9c0-0.9,0.4-1.7,1-2.3
		c0.6-0.6,1.4-1,2.3-1c0.9,0,1.7,0.4,2.3,1c0.6,0.6,1,1.4,1,2.3V65.1z"/>
	<rect x="89.7" y="22.2" class="st23" width="12" height="105.7"/>
	<path class="st23" d="M58.3,116.8l11,11v-7.3c4.2,0,8-1.7,10.7-4.5c2.8-2.7,4.5-6.5,4.5-10.7c0-4.2-1.7-8-4.5-10.7
		c-2.8-2.7-6.5-4.4-10.7-4.4h-6.8c-2.1,0-3.7,1.7-3.7,3.7c0,2.1,1.7,3.7,3.7,3.7h6.8c2.1,0,4.1,0.9,5.5,2.3c1.4,1.4,2.3,3.3,2.3,5.5
		c0,2.1-0.9,4.1-2.3,5.5c-1.4,1.4-3.3,2.3-5.5,2.3v-7.3L58.3,116.8L58.3,116.8z M58.3,33.2l11-11v7.3c4.2,0,8,1.7,10.7,4.5
		c2.8,2.7,4.5,6.5,4.5,10.7c0,4.2-1.7,8-4.5,10.7c-2.8,2.8-6.5,4.5-10.7,4.5h-6.8c-2.1,0-3.7-1.7-3.7-3.7c0-2.1,1.7-3.7,3.7-3.7h6.8
		c2.1,0,4.1-0.9,5.5-2.3c1.4-1.4,2.3-3.3,2.3-5.5c0-2.1-0.9-4.1-2.3-5.5c-1.4-1.4-3.3-2.3-5.5-2.3v7.3L58.3,33.2z"/>
</g>
</svg>
