<?xml version="1.0" encoding="utf-8"?>
<!-- Generator: Adobe Illustrator 17.1.0, SVG Export Plug-In . SVG Version: 6.00 Build 0)  -->
<!DOCTYPE svg PUBLIC "-//W3C//DTD SVG 1.1//EN" "http://www.w3.org/Graphics/SVG/1.1/DTD/svg11.dtd">
<svg version="1.1" id="Слой_1" xmlns="http://www.w3.org/2000/svg" xmlns:xlink="http://www.w3.org/1999/xlink" x="0px" y="0px"
	 viewBox="0 0 150 150" style="enable-background:new 0 0 150 150;" xml:space="preserve">
<style type="text/css">
	.st0{clip-path:url(#SVGID_2_);fill:#008D36;}
	.st1{fill:#008D36;}
	.st2{clip-path:url(#SVGID_4_);fill:#888888;}
	.st3{clip-path:url(#SVGID_6_);fill:#888888;}
	.st4{fill:#888888;}
	.st5{clip-path:url(#SVGID_8_);fill:#888888;}
	.st6{fill:none;stroke:#888888;stroke-width:5.805;stroke-miterlimit:10;}
	.st7{clip-path:url(#SVGID_10_);fill:#888888;}
	.st8{clip-path:url(#SVGID_12_);fill:#888888;}
	.st9{fill-rule:evenodd;clip-rule:evenodd;fill:#1D4C6B;}
	.st10{fill-rule:evenodd;clip-rule:evenodd;fill:#FFFFFF;}
	
		.st11{fill:none;stroke:#008D36;stroke-width:3;stroke-linecap:round;stroke-linejoin:round;stroke-dasharray:1.9993,5.9978,0,0,0,0;}
	
		.st12{fill:none;stroke:#1F4D6B;stroke-width:3;stroke-linecap:round;stroke-linejoin:round;stroke-dasharray:1.9993,5.9978,0,0,0,0;}
	.st13{clip-path:url(#SVGID_14_);fill:#FFFFFF;}
	
		.st14{fill:none;stroke:#FFFFFF;stroke-width:3;stroke-linecap:round;stroke-linejoin:round;stroke-dasharray:1.9993,5.9978,0,0,0,0;}
	.st15{clip-path:url(#SVGID_16_);fill:#FFFFFF;}
	.st16{fill:#FFFFFF;}
	.st17{fill:#1F4D6B;}
	.st18{fill:none;stroke:#1F4D6B;stroke-width:6.7835;stroke-linecap:round;stroke-linejoin:round;stroke-miterlimit:10;}
	.st19{fill:none;stroke:#1F4D6B;stroke-width:6.6338;stroke-linecap:square;stroke-linejoin:bevel;stroke-miterlimit:10;}
	.st20{fill:none;stroke:#1F4D6B;stroke-width:7.146;stroke-linecap:square;stroke-linejoin:bevel;stroke-miterlimit:10;}
	
		.st21{fill:none;stroke:#888888;stroke-width:3;stroke-linecap:round;stroke-linejoin:round;stroke-dasharray:1.9993,5.9978,0,0,0,0;}
	.st22{clip-path:url(#SVGID_18_);fill:#888888;}
	.st23{fill-rule:evenodd;clip-rule:evenodd;fill:#1F4D6B;}
	.st24{clip-path:url(#SVGID_20_);fill:#888888;}
	.st25{clip-path:url(#SVGID_22_);fill:#008D36;}
	.st26{fill:none;stroke:#008D36;stroke-width:6;stroke-miterlimit:10;}
	.st27{fill:#E9E9E0;}
	.st28{fill:#D9D7CA;}
	.st29{fill:#CC4B4C;}
</style>
<g>
	<defs>
		<rect id="SVGID_5_" x="5" y="5" width="140" height="140"/>
	</defs>
	<clipPath id="SVGID_2_">
		<use xlink:href="#SVGID_5_"  style="overflow:visible;"/>
	</clipPath>
	<path style="clip-path:url(#SVGID_2_);fill:#888888;" d="M145,8.2c0-1.7-1.4-3.2-3.2-3.2h-91c-1.7,0-3.2,1.4-3.2,3.2v18.2H29.5
		c-1.7,0-3.2,1.4-3.2,3.2v18.2H8.2c-1.7,0-3.2,1.4-3.2,3.2v91c0,1.7,1.4,3.2,3.2,3.2h91c1.7,0,3.2-1.4,3.2-3.2v-18.2h18.2
		c1.7,0,3.2-1.4,3.2-3.2v-18.2h18.2c1.7,0,3.2-1.4,3.2-3.2L145,8.2z M138.7,11.3v8.5l-15,15v-5.4c0-1.8-1.4-3.2-3.2-3.2h-5.4l15-15
		H138.7z M123.7,43.8l15-15v17l-15,15V43.8z M121.2,11.3l-15,15h-17l15-15H121.2z M95.2,11.3l-15,15h-17l15-15H95.2z M54,11.3h15.2
		l-15,15H54V11.3z M96,138.7H11.3V54H96V138.7z M117.3,117.3h-15V50.8c0-1.7-1.4-3.2-3.2-3.2H32.7v-15h84.7V117.3z M138.7,96h-15
		v-0.2l15-15V96z M123.7,86.9v-17l15-15l0,17L123.7,86.9z"/>
	<path style="clip-path:url(#SVGID_2_);fill:#888888;" d="M48.8,85.7h9.8c1.7,0,3.2-1.4,3.2-3.2c0-1.7-1.4-3.2-3.2-3.2h-9.8
		c-1.7,0-3.2,1.4-3.2,3.2C45.6,84.3,47,85.7,48.8,85.7"/>
	<path style="clip-path:url(#SVGID_2_);fill:#888888;" d="M48.8,113.3h9.8c1.7,0,3.2-1.4,3.2-3.2c0-1.7-1.4-3.2-3.2-3.2h-9.8
		c-1.7,0-3.2,1.4-3.2,3.2C45.6,111.8,47,113.3,48.8,113.3"/>
	<path style="clip-path:url(#SVGID_2_);fill:#888888;" d="M24.6,72L24.6,72l9.8,0c1.7,0,3.2-1.4,3.2-3.2c0-1.7-1.4-3.2-3.2-3.2
		l-9.8,0c-1.7,0-3.2,1.4-3.2,3.2C21.4,70.5,22.8,72,24.6,72"/>
	<path style="clip-path:url(#SVGID_2_);fill:#888888;" d="M72.9,72L72.9,72l9.8,0c1.7,0,3.2-1.4,3.2-3.2c0-1.7-1.4-3.2-3.2-3.2
		l-9.8,0c-1.7,0-3.2,1.4-3.2,3.2C69.8,70.5,71.2,72,72.9,72"/>
	<path style="clip-path:url(#SVGID_2_);fill:#888888;" d="M24.6,127l9.8,0h0c1.7,0,3.2-1.4,3.2-3.2c0-1.7-1.4-3.2-3.2-3.2l-9.8,0h0
		c-1.7,0-3.2,1.4-3.2,3.2C21.4,125.6,22.8,127,24.6,127"/>
	<path style="clip-path:url(#SVGID_2_);fill:#888888;" d="M72.9,127l9.8,0c1.7,0,3.2-1.4,3.2-3.2c0-1.7-1.4-3.2-3.2-3.2l-9.8,0h0
		c-1.7,0-3.2,1.4-3.2,3.2C69.8,125.6,71.2,127,72.9,127"/>
	<path style="clip-path:url(#SVGID_2_);fill:#888888;" d="M24.6,99.5h9.8c1.7,0,3.2-1.4,3.2-3.2s-1.4-3.2-3.2-3.2h-9.8
		c-1.7,0-3.2,1.4-3.2,3.2S22.8,99.5,24.6,99.5"/>
	<path style="clip-path:url(#SVGID_2_);fill:#888888;" d="M82.7,93.2h-9.8c-1.7,0-3.2,1.4-3.2,3.2c0,1.7,1.4,3.2,3.2,3.2h9.8
		c1.7,0,3.2-1.4,3.2-3.2C85.9,94.6,84.5,93.2,82.7,93.2"/>
</g>
</svg>
