<?xml version="1.0" encoding="utf-8"?>
<!-- Generator: Adobe Illustrator 17.1.0, SVG Export Plug-In . SVG Version: 6.00 Build 0)  -->
<!DOCTYPE svg PUBLIC "-//W3C//DTD SVG 1.1//EN" "http://www.w3.org/Graphics/SVG/1.1/DTD/svg11.dtd">
<svg version="1.1" id="Слой_1" xmlns="http://www.w3.org/2000/svg" xmlns:xlink="http://www.w3.org/1999/xlink" x="0px" y="0px"
	 viewBox="0 0 150 150" style="enable-background:new 0 0 150 150;" xml:space="preserve">
<style type="text/css">
	.st0{clip-path:url(#SVGID_2_);fill:#008D36;}
	.st1{fill:#008D36;}
	.st2{clip-path:url(#SVGID_4_);fill:#888888;}
	.st3{clip-path:url(#SVGID_6_);fill:#888888;}
	.st4{fill:#888888;}
	.st5{clip-path:url(#SVGID_8_);fill:#888888;}
	.st6{fill:none;stroke:#888888;stroke-width:5.805;stroke-miterlimit:10;}
	.st7{clip-path:url(#SVGID_10_);fill:#888888;}
	.st8{clip-path:url(#SVGID_12_);fill:#888888;}
	.st9{fill-rule:evenodd;clip-rule:evenodd;fill:#1D4C6B;}
	.st10{fill-rule:evenodd;clip-rule:evenodd;fill:#FFFFFF;}
	
		.st11{fill:none;stroke:#008D36;stroke-width:3;stroke-linecap:round;stroke-linejoin:round;stroke-dasharray:1.9993,5.9978,0,0,0,0;}
	
		.st12{fill:none;stroke:#1F4D6B;stroke-width:3;stroke-linecap:round;stroke-linejoin:round;stroke-dasharray:1.9993,5.9978,0,0,0,0;}
	.st13{clip-path:url(#SVGID_14_);fill:#FFFFFF;}
	
		.st14{fill:none;stroke:#FFFFFF;stroke-width:3;stroke-linecap:round;stroke-linejoin:round;stroke-dasharray:1.9993,5.9978,0,0,0,0;}
	.st15{clip-path:url(#SVGID_16_);fill:#FFFFFF;}
	.st16{fill:#FFFFFF;}
	.st17{fill:#1F4D6B;}
	.st18{fill:none;stroke:#1F4D6B;stroke-width:6.7835;stroke-linecap:round;stroke-linejoin:round;stroke-miterlimit:10;}
	.st19{fill:none;stroke:#1F4D6B;stroke-width:6.6338;stroke-linecap:square;stroke-linejoin:bevel;stroke-miterlimit:10;}
	.st20{fill:none;stroke:#1F4D6B;stroke-width:7.146;stroke-linecap:square;stroke-linejoin:bevel;stroke-miterlimit:10;}
	
		.st21{fill:none;stroke:#888888;stroke-width:3;stroke-linecap:round;stroke-linejoin:round;stroke-dasharray:1.9993,5.9978,0,0,0,0;}
	.st22{clip-path:url(#SVGID_18_);fill:#888888;}
	.st23{fill-rule:evenodd;clip-rule:evenodd;fill:#1F4D6B;}
	.st24{clip-path:url(#SVGID_20_);fill:#888888;}
	.st25{clip-path:url(#SVGID_22_);fill:#008D36;}
	.st26{fill:none;stroke:#008D36;stroke-width:6;stroke-miterlimit:10;}
	.st27{fill:#E9E9E0;}
	.st28{fill:#D9D7CA;}
	.st29{fill:#CC4B4C;}
</style>
<g>
	<g>
		<g>
			<path class="st16" d="M109,113L76.4,35.9C76.1,35.4,75.6,35,75,35c-0.6,0-1.1,0.4-1.4,0.9L41,113c-0.2,0.5-0.1,1,0.1,1.4
				c0.3,0.4,0.7,0.6,1.2,0.6h16.3c0,0,0,0,0,0c0,0,0,0,0,0H75c0,0,0,0,0,0c0,0,0,0,0,0h32.6c0.5,0,1-0.2,1.2-0.6
				C109.1,113.9,109.2,113.5,109,113z M73.3,112H60.9l12.5-32.2V112L73.3,112z M76.3,112L76.3,112V72c0-0.7-0.4-1.3-1.1-1.5
				c-0.7-0.1-1.3,0.2-1.6,0.9L57.7,112H44.6L75,40.2l30.4,71.8L76.3,112L76.3,112z"/>
		</g>
	</g>
	<g>
		<circle class="st14" cx="75" cy="75" r="70"/>
	</g>
</g>
</svg>
