<?xml version="1.0" encoding="utf-8"?>
<!-- Generator: Adobe Illustrator 17.1.0, SVG Export Plug-In . SVG Version: 6.00 Build 0)  -->
<!DOCTYPE svg PUBLIC "-//W3C//DTD SVG 1.1//EN" "http://www.w3.org/Graphics/SVG/1.1/DTD/svg11.dtd">
<svg version="1.1" id="Слой_1" xmlns="http://www.w3.org/2000/svg" xmlns:xlink="http://www.w3.org/1999/xlink" x="0px" y="0px"
	 viewBox="0 0 150 150" style="enable-background:new 0 0 150 150;" xml:space="preserve">
<style type="text/css">
	.st0{clip-path:url(#SVGID_2_);fill:#008D36;}
	.st1{fill:#008D36;}
	.st2{clip-path:url(#SVGID_4_);fill:#888888;}
	.st3{clip-path:url(#SVGID_6_);fill:#888888;}
	.st4{fill:#888888;}
	.st5{clip-path:url(#SVGID_8_);fill:#888888;}
	.st6{fill:none;stroke:#888888;stroke-width:5.805;stroke-miterlimit:10;}
	.st7{clip-path:url(#SVGID_10_);fill:#888888;}
	.st8{clip-path:url(#SVGID_12_);fill:#888888;}
	.st9{fill-rule:evenodd;clip-rule:evenodd;fill:#1D4C6B;}
	.st10{fill-rule:evenodd;clip-rule:evenodd;fill:#FFFFFF;}
	
		.st11{fill:none;stroke:#008D36;stroke-width:3;stroke-linecap:round;stroke-linejoin:round;stroke-dasharray:1.9993,5.9978,0,0,0,0;}
	
		.st12{fill:none;stroke:#1F4D6B;stroke-width:3;stroke-linecap:round;stroke-linejoin:round;stroke-dasharray:1.9993,5.9978,0,0,0,0;}
	.st13{clip-path:url(#SVGID_14_);fill:#FFFFFF;}
	
		.st14{fill:none;stroke:#FFFFFF;stroke-width:3;stroke-linecap:round;stroke-linejoin:round;stroke-dasharray:1.9993,5.9978,0,0,0,0;}
	.st15{clip-path:url(#SVGID_16_);fill:#FFFFFF;}
	.st16{fill:#FFFFFF;}
	.st17{fill:#1F4D6B;}
	.st18{fill:none;stroke:#1F4D6B;stroke-width:6.7835;stroke-linecap:round;stroke-linejoin:round;stroke-miterlimit:10;}
	.st19{fill:none;stroke:#1F4D6B;stroke-width:6.6338;stroke-linecap:square;stroke-linejoin:bevel;stroke-miterlimit:10;}
	.st20{fill:none;stroke:#1F4D6B;stroke-width:7.146;stroke-linecap:square;stroke-linejoin:bevel;stroke-miterlimit:10;}
	
		.st21{fill:none;stroke:#888888;stroke-width:3;stroke-linecap:round;stroke-linejoin:round;stroke-dasharray:1.9993,5.9978,0,0,0,0;}
	.st22{clip-path:url(#SVGID_18_);fill:#888888;}
	.st23{fill-rule:evenodd;clip-rule:evenodd;fill:#1F4D6B;}
	.st24{clip-path:url(#SVGID_20_);fill:#888888;}
	.st25{clip-path:url(#SVGID_22_);fill:#008D36;}
	.st26{fill:none;stroke:#008D36;stroke-width:6;stroke-miterlimit:10;}
	.st27{fill:#E9E9E0;}
	.st28{fill:#D9D7CA;}
	.st29{fill:#CC4B4C;}
</style>
<g transform="translate(-1 -1)">
	<g>
		<g>
			<g>
				<path class="st1" d="M142.3,114L114,95.1c-3.6-2.4-8.4-1.6-11.1,1.8l-8.3,10.6c-1.1,1.4-3,1.8-4.5,1l-1.6-0.9
					c-5.2-2.8-11.7-6.4-24.7-19.4S47.2,68.6,44.4,63.5l-0.9-1.6c-0.9-1.5-0.5-3.5,0.9-4.5l10.6-8.3c3.4-2.7,4.2-7.5,1.8-11.1L38,9.7
					C35.6,6,30.7,4.9,26.9,7.2l-11.9,7.1c-3.7,2.2-6.5,5.7-7.6,9.9c-4.3,15.5-1.1,42.4,38.5,81.9c31.4,31.4,54.9,39.9,70.9,39.9
					c3.7,0,7.4-0.5,11-1.4c4.2-1.2,7.7-3.9,9.9-7.6l7.1-11.8C147.1,121.3,146,116.4,142.3,114z M140.8,122.7l-7.1,11.9
					c-1.6,2.7-4.1,4.7-7.1,5.5c-14.4,3.9-39.4,0.7-77.4-37.3S8,39.8,11.9,25.4c0.9-3,2.8-5.6,5.5-7.1l11.9-7.1
					c1.6-1,3.8-0.5,4.8,1.1l10.3,15.4L53,40.6c1,1.6,0.7,3.7-0.8,4.8l-10.6,8.3c-3.2,2.5-4.2,6.9-2.2,10.5l0.8,1.5
					c3,5.5,6.7,12.3,20.2,25.8C74,105,80.8,108.7,86.3,111.7l1.5,0.8c3.5,2,8,1.1,10.5-2.2l8.3-10.6c1.2-1.5,3.2-1.8,4.8-0.8
					l28.3,18.9C141.3,119,141.8,121.1,140.8,122.7z"/>
			</g>
			<g>
				<path class="st1" d="M85.3,29.3c21.9,0,39.6,17.8,39.7,39.7c0,1.3,1,2.3,2.3,2.3c1.3,0,2.3-1,2.3-2.3
					c0-24.5-19.9-44.3-44.3-44.3c-1.3,0-2.3,1-2.3,2.3S84,29.3,85.3,29.3z"/>
			</g>
			<g>
				<path class="st1" d="M85.3,43.3C99.5,43.4,111,54.8,111,69c0,1.3,1,2.3,2.3,2.3c1.3,0,2.3-1,2.3-2.3c0-16.7-13.6-30.3-30.3-30.3
					c-1.3,0-2.3,1-2.3,2.3C83,42.3,84,43.3,85.3,43.3z"/>
			</g>
			<g>
				<path class="st1" d="M85.3,57.3C91.8,57.3,97,62.6,97,69c0,1.3,1,2.3,2.3,2.3s2.3-1,2.3-2.3c0-9-7.3-16.3-16.3-16.3
					c-1.3,0-2.3,1-2.3,2.3S84,57.3,85.3,57.3z"/>
			</g>
		</g>
	</g>
</g>
</svg>
