<?xml version="1.0" encoding="utf-8"?>
<!-- Generator: Adobe Illustrator 17.1.0, SVG Export Plug-In . SVG Version: 6.00 Build 0)  -->
<!DOCTYPE svg PUBLIC "-//W3C//DTD SVG 1.1//EN" "http://www.w3.org/Graphics/SVG/1.1/DTD/svg11.dtd">
<svg version="1.1" id="Слой_1" xmlns="http://www.w3.org/2000/svg" xmlns:xlink="http://www.w3.org/1999/xlink" x="0px" y="0px"
	 viewBox="0 0 150 150" style="enable-background:new 0 0 150 150;" xml:space="preserve">
<style type="text/css">
	.st0{clip-path:url(#SVGID_2_);fill:#008D36;}
	.st1{fill:#008D36;}
	.st2{clip-path:url(#SVGID_4_);fill:#888888;}
	.st3{clip-path:url(#SVGID_6_);fill:#888888;}
	.st4{fill:#888888;}
	.st5{clip-path:url(#SVGID_8_);fill:#888888;}
	.st6{fill:none;stroke:#888888;stroke-width:5.805;stroke-miterlimit:10;}
	.st7{clip-path:url(#SVGID_10_);fill:#888888;}
	.st8{clip-path:url(#SVGID_12_);fill:#888888;}
	.st9{fill-rule:evenodd;clip-rule:evenodd;fill:#1D4C6B;}
	.st10{fill-rule:evenodd;clip-rule:evenodd;fill:#FFFFFF;}
	
		.st11{fill:none;stroke:#008D36;stroke-width:3;stroke-linecap:round;stroke-linejoin:round;stroke-dasharray:1.9993,5.9978,0,0,0,0;}
	
		.st12{fill:none;stroke:#1F4D6B;stroke-width:3;stroke-linecap:round;stroke-linejoin:round;stroke-dasharray:1.9993,5.9978,0,0,0,0;}
	.st13{clip-path:url(#SVGID_14_);fill:#FFFFFF;}
	
		.st14{fill:none;stroke:#FFFFFF;stroke-width:3;stroke-linecap:round;stroke-linejoin:round;stroke-dasharray:1.9993,5.9978,0,0,0,0;}
	.st15{clip-path:url(#SVGID_16_);fill:#FFFFFF;}
	.st16{fill:#FFFFFF;}
	.st17{fill:#1F4D6B;}
	.st18{fill:none;stroke:#1F4D6B;stroke-width:6.7835;stroke-linecap:round;stroke-linejoin:round;stroke-miterlimit:10;}
	.st19{fill:none;stroke:#1F4D6B;stroke-width:6.6338;stroke-linecap:square;stroke-linejoin:bevel;stroke-miterlimit:10;}
	.st20{fill:none;stroke:#1F4D6B;stroke-width:7.146;stroke-linecap:square;stroke-linejoin:bevel;stroke-miterlimit:10;}
	
		.st21{fill:none;stroke:#888888;stroke-width:3;stroke-linecap:round;stroke-linejoin:round;stroke-dasharray:1.9993,5.9978,0,0,0,0;}
	.st22{clip-path:url(#SVGID_18_);fill:#888888;}
	.st23{fill-rule:evenodd;clip-rule:evenodd;fill:#1F4D6B;}
	.st24{clip-path:url(#SVGID_20_);fill:#888888;}
	.st25{clip-path:url(#SVGID_22_);fill:#008D36;}
	.st26{fill:none;stroke:#008D36;stroke-width:6;stroke-miterlimit:10;}
	.st27{fill:#E9E9E0;}
	.st28{fill:#D9D7CA;}
	.st29{fill:#CC4B4C;}
</style>
<g>
	<g>
		<defs>
			<rect id="SVGID_13_" x="35" y="35.1" width="80" height="79.9"/>
		</defs>
		<clipPath id="SVGID_2_">
			<use xlink:href="#SVGID_13_"  style="overflow:visible;"/>
		</clipPath>
		<path style="clip-path:url(#SVGID_2_);fill:#FFFFFF;" d="M74.5,70.9l4.4,2.6c0.6,0.3,1.3,0.3,1.8,0l3.5-2.1l3.5,2.1
			c0.6,0.3,1.3,0.3,1.8,0l3.5-2.1l3.5,2.1c0.3,0.2,0.6,0.3,0.9,0.3c0.3,0,0.6-0.1,0.9-0.3l4.4-2.6c0.9-0.5,1.1-1.6,0.6-2.5
			c-0.5-0.9-1.6-1.1-2.5-0.6l-3.5,2.1L94,67.8c-0.6-0.3-1.3-0.3-1.8,0l-3.5,2.1l-3.5-2.1c-0.6-0.3-1.3-0.3-1.8,0l-3.5,2.1l-3.5-2.1
			c-0.9-0.5-2-0.2-2.5,0.6C73.4,69.3,73.6,70.4,74.5,70.9"/>
		<path style="clip-path:url(#SVGID_2_);fill:#FFFFFF;" d="M74.5,84.6l4.4,2.6c0.6,0.3,1.3,0.3,1.8,0l3.5-2.1l3.5,2.1
			c0.6,0.3,1.3,0.3,1.8,0l3.5-2.1l3.5,2.1c0.3,0.2,0.6,0.3,0.9,0.3c0.3,0,0.6-0.1,0.9-0.3l4.4-2.6c0.9-0.5,1.1-1.6,0.6-2.5
			c-0.5-0.9-1.6-1.1-2.5-0.6l-3.5,2.1L94,81.5c-0.6-0.3-1.3-0.3-1.8,0l-3.5,2.1l-3.5-2.1c-0.6-0.3-1.3-0.3-1.8,0l-3.5,2.1l-3.5-2.1
			c-0.9-0.5-2-0.2-2.5,0.6C73.4,83,73.6,84.1,74.5,84.6"/>
		<path style="clip-path:url(#SVGID_2_);fill:#FFFFFF;" d="M101,95.1l-3.5,2.1L94,95.1c-0.6-0.3-1.3-0.3-1.8,0l-3.5,2.1l-3.5-2.1
			c-0.6-0.3-1.3-0.3-1.8,0l-3.5,2.1l-3.5-2.1c-0.9-0.5-2-0.2-2.5,0.6c-0.5,0.9-0.2,2,0.6,2.5l4.4,2.6c0.6,0.3,1.3,0.3,1.8,0l3.5-2.1
			l3.5,2.1c0.6,0.3,1.3,0.3,1.8,0l3.5-2.1l3.5,2.1c0.3,0.2,0.6,0.2,0.9,0.2c0.3,0,0.6-0.1,0.9-0.2l4.4-2.6c0.9-0.5,1.1-1.6,0.6-2.5
			C103,94.9,101.9,94.6,101,95.1"/>
		<path style="clip-path:url(#SVGID_2_);fill:#FFFFFF;" d="M113.2,53.7H66v-3.2C66,42,59,35.1,50.5,35.1S35,42,35,50.6v48.9
			c0,8.5,6.9,15.5,15.5,15.5h62.7c1,0,1.8-0.8,1.8-1.8V55.5C115,54.5,114.2,53.7,113.2,53.7 M38.6,50.6c0-6.5,5.3-11.9,11.9-11.9
			S62.4,44,62.4,50.6v39c-2.8-3.4-7.1-5.6-11.9-5.6c-1.6,0-3.2,0.3-4.7,0.7V60.3c0-1-0.8-1.8-1.8-1.8c-1,0-1.8,0.8-1.8,1.8v26.1
			c-1.4,0.9-2.6,1.9-3.6,3.2V50.6z M38.6,99.4c0-6.6,5.3-11.9,11.9-11.9s11.9,5.3,11.9,11.9c0,6.5-5.3,11.9-11.9,11.9
			S38.6,106,38.6,99.4 M111.4,111.3h-51c3.4-2.8,5.6-7.1,5.6-11.9V57.3h45.4V111.3z"/>
		<path style="clip-path:url(#SVGID_2_);fill:#FFFFFF;" d="M57.9,99.4c0-4.1-3.3-7.4-7.4-7.4s-7.4,3.3-7.4,7.4
			c0,4.1,3.3,7.4,7.4,7.4S57.9,103.5,57.9,99.4 M46.7,99.4c0-2.1,1.7-3.8,3.8-3.8c2.1,0,3.8,1.7,3.8,3.8c0,2.1-1.7,3.8-3.8,3.8
			C48.4,103.3,46.7,101.5,46.7,99.4"/>
	</g>
	<g>
		<circle class="st14" cx="75" cy="75" r="70"/>
	</g>
</g>
</svg>
